Caso practico Transactions
…
El siguiente paso es calcular la RFM. Para ello deberemos calcular la Recencia, la Frecuencia y el Gasto.

df <- df %>%
  mutate(
    Recency_days = as.numeric(date - lastOrderDate), #Recencia en das
    Recency_weeks = round(difftime(date, #Recencia en semanas
                lastOrderDate, units = c("weeks")), 0),
    Frequency = n_Orders,
    Monetary = totalSpent
  )

df

## # A tibble: 296 x 10
##    clientId firstOrderDate lastOrderDate n_Orders n_Products totalSpent
##       <int> <date>         <date>           <int>      <int>      <int>
##  1        1 2017-02-11     2017-02-24           3          7        511
##  2        2 2017-01-16     2017-03-30           5          8       1229
##  3        3 2017-02-26     2017-02-26           1          3        137
##  4        4 2017-01-05     2017-03-02           5          8        885
##  5        5 2017-02-07     2017-03-14           3          8        609
##  6        6 2017-01-08     2017-04-01           5          9       1116
##  7        7 2017-04-04     2017-04-04           1          3        160
##  8        8 2017-03-30     2017-04-02           2          6        497
##  9        9 2017-01-10     2017-03-17           2          6        320
## 10       10 2017-01-09     2017-03-08           4          7        701
## # ... with 286 more rows, and 4 more variables: Recency_days <dbl>,
## #   Recency_weeks <drtn>, Frequency <int>, Monetary <int>
…
